{
  "user": {
    "code": 0,
    "message": "success",
    "data": {
      "userId": "XIANCONG.ZHOU",
      "manager": "XINZHUANG.GAO",
      "managerName": "XINZHUANG.GAO 高新莊",
      "email": "XIANCONG.ZHOU@DELTAWW.COM",
      "bg": "CORP/企業本部/Corporate",
      "bu": "IT/資訊/Information Technology",
      "department": "東莞系統架構規劃部/",
      "lastUpdate": "2021-01-14T11:08:07.127",
      "lastLogon": "2021-01-14T08:48:45.453",
      "userName": "XIANCONG.ZHOU 周賢聰"
    }
  },
  "catalog": {
    "code": 0,
    "message": "success",
    "data": [
      {
        "catId": 1,
        "catName": "Commercial",
        "icon": "folder.gif",
        "parentId": null,
        "packageCount": 39,
        "createTime": "2021-01-05T06:06:33.623+00:00",
        "createUser": "system",
        "lastUpdateTime": "2021-01-05T06:06:33.623+00:00",
        "lastUpdateUser": "system"
      },
      {
        "catId": 2,
        "catName": "Freeware",
        "icon": "folder.gif",
        "parentId": null,
        "packageCount": 3,
        "createTime": "2021-01-05T06:06:33.623+00:00",
        "createUser": "system",
        "lastUpdateTime": "2021-01-05T06:06:33.623+00:00",
        "lastUpdateUser": "system"
      },
      {
        "catId": 3,
        "catName": "Library",
        "icon": "folder.gif",
        "parentId": null,
        "packageCount": 426,
        "createTime": "2021-01-05T06:06:33.623+00:00",
        "createUser": "system",
        "lastUpdateTime": "2021-01-05T06:06:33.623+00:00",
        "lastUpdateUser": "system"
      }
    ]
  },
  "catalogItems": {
    "code": 200,
    "message": "sucesss",
    "data": {
      "InventoryQuantity": 9999,
      "@timestamp": "2021-01-06T09:09:00.293Z",
      "ImagePath": "http://scls.deltaww.com/api/file/download?oid=590bea921963a92de2b2f35c",
      "PackageDesc": "Easier to use library for creating and verifying JSON Web Tokens and implement authentication",
      "@version": "1",
      "PackageTitle": "JWT-Utility",
      "UpdatedOn": "2021-01-04T17:31:58.500Z",
      "PackageID": 1,
      "CatID": 3,
      "CatName": "Library",
      "LicenseType": null
    }
  },
  "search": {
    "code": 0,
    "message": "success",
    "data": {
      "total": 39,
      "pageNum": 1,
      "pageSize": 10,
      "size": 10,
      "startRow": 1,
      "endRow": 10,
      "pages": 4,
      "prePage": 0,
      "nextPage": 2,
      "hasPreviousPage": false,
      "hasNextPage": true,
      "navigatePages": 8,
      "navigatepageNums": [
        1,
        2,
        3,
        4
      ],
      "navigateFirstPage": 1,
      "navigateLastPage": 4,
      "list": [
        {
          "InventoryQuantity": 64,
          "@timestamp": "2021-01-06T09:09:00.356Z",
          "ImagePath": null,
          "PackageDesc": null,
          "@version": "1",
          "PackageTitle": "Sketchup",
          "UpdatedOn": "2021-01-05T17:20:42.493Z",
          "PackageID": 457,
          "CatID": 1,
          "CatName": "Commercial",
          "LicenseType": "Node"
        },
        {
          "InventoryQuantity": 142,
          "@timestamp": "2021-01-06T09:09:00.352Z",
          "ImagePath": null,
          "PackageDesc": null,
          "@version": "1",
          "PackageTitle": "ANSYS Siwave",
          "UpdatedOn": "2021-01-05T17:20:42.493Z",
          "PackageID": 432,
          "CatID": 1,
          "CatName": "Commercial",
          "LicenseType": "Float"
        },
        {
          "InventoryQuantity": 83,
          "@timestamp": "2021-01-06T09:09:00.354Z",
          "ImagePath": null,
          "PackageDesc": null,
          "@version": "1",
          "PackageTitle": "MATLAB",
          "UpdatedOn": "2021-01-05T17:20:42.493Z",
          "PackageID": 442,
          "CatID": 1,
          "CatName": "Commercial",
          "LicenseType": "Float"
        },
        {
          "InventoryQuantity": 74,
          "@timestamp": "2021-01-06T09:09:00.356Z",
          "ImagePath": null,
          "PackageDesc": null,
          "@version": "1",
          "PackageTitle": "BAT-EMC maintenace contract",
          "UpdatedOn": "2021-01-05T17:20:42.493Z",
          "PackageID": 456,
          "CatID": 1,
          "CatName": "Commercial",
          "LicenseType": "Node"
        },
        {
          "InventoryQuantity": 92,
          "@timestamp": "2021-01-06T09:09:00.353Z",
          "ImagePath": null,
          "PackageDesc": null,
          "@version": "1",
          "PackageTitle": "Minitab Multi-User License for 5U (1-year)",
          "UpdatedOn": "2021-01-05T17:20:42.493Z",
          "PackageID": 439,
          "CatID": 1,
          "CatName": "Commercial",
          "LicenseType": "Float"
        },
        {
          "InventoryQuantity": 91,
          "@timestamp": "2021-01-06T09:09:00.357Z",
          "ImagePath": null,
          "PackageDesc": null,
          "@version": "1",
          "PackageTitle": "Creo Layout",
          "UpdatedOn": "2021-01-05T17:20:42.493Z",
          "PackageID": 466,
          "CatID": 1,
          "CatName": "Commercial",
          "LicenseType": null
        },
        {
          "InventoryQuantity": 85,
          "@timestamp": "2021-01-06T09:09:00.357Z",
          "ImagePath": null,
          "PackageDesc": null,
          "@version": "1",
          "PackageTitle": "Creo view interference analysis",
          "UpdatedOn": "2021-01-05T17:20:42.493Z",
          "PackageID": 468,
          "CatID": 1,
          "CatName": "Commercial",
          "LicenseType": null
        },
        {
          "InventoryQuantity": 83,
          "@timestamp": "2021-01-06T09:09:00.355Z",
          "ImagePath": null,
          "PackageDesc": null,
          "@version": "1",
          "PackageTitle": "Flotherm Parallel Ap SW (Flotherm)",
          "UpdatedOn": "2021-01-05T17:20:42.493Z",
          "PackageID": 453,
          "CatID": 1,
          "CatName": "Commercial",
          "LicenseType": "Float"
        },
        {
          "InventoryQuantity": 77,
          "@timestamp": "2021-01-06T09:09:00.354Z",
          "ImagePath": null,
          "PackageDesc": null,
          "@version": "1",
          "PackageTitle": "Altium Designer SE(PL-Private Server)",
          "UpdatedOn": "2021-01-05T17:20:42.493Z",
          "PackageID": 441,
          "CatID": 1,
          "CatName": "Commercial",
          "LicenseType": "Float"
        },
        {
          "InventoryQuantity": 76,
          "@timestamp": "2021-01-06T09:09:00.353Z",
          "ImagePath": null,
          "PackageDesc": null,
          "@version": "1",
          "PackageTitle": "TAI for Altium Designer",
          "UpdatedOn": "2021-01-05T17:20:42.493Z",
          "PackageID": 440,
          "CatID": 1,
          "CatName": "Commercial",
          "LicenseType": "Float"
        }
      ],
      "categoryList": [
        {
          "catId": 1,
          "catName": "Commercial",
          "icon": "folder.gif",
          "parentId": null,
          "packageCount": 39,
          "createTime": "2021-01-05T06:06:33.623+00:00",
          "createUser": "system",
          "lastUpdateTime": "2021-01-05T06:06:33.623+00:00",
          "lastUpdateUser": "system"
        },
        {
          "catId": 2,
          "catName": "Freeware",
          "icon": "folder.gif",
          "parentId": null,
          "packageCount": 3,
          "createTime": "2021-01-05T06:06:33.623+00:00",
          "createUser": "system",
          "lastUpdateTime": "2021-01-05T06:06:33.623+00:00",
          "lastUpdateUser": "system"
        },
        {
          "catId": 3,
          "catName": "Library",
          "icon": "folder.gif",
          "parentId": null,
          "packageCount": 426,
          "createTime": "2021-01-05T06:06:33.623+00:00",
          "createUser": "system",
          "lastUpdateTime": "2021-01-05T06:06:33.623+00:00",
          "lastUpdateUser": "system"
        }
      ],
      "firstPage": true,
      "lastPage": false
    }
  },
  "suggest": {
    "rtncode": 0,
    "message": "Success",
    "data": [
      "TEST",
      "Tasking",
      "Touch",
      "Tomacat"
    ]
  },
  "rtcPA": [
    {
      "paName": "CORP-CORP-SEC(CCM)",
      "paId": "_Tfh-8EvgEeqzSsmz2AX53A",
      "app": "ccm",
      "env": "production"
    },
    {
      "paName": "CORP-SCP-SCP(CCM)",
      "paId": "_oolyMPkbEeixXYWxnIjPgg",
      "app": "ccm",
      "env": "production"
    },
    {
      "paName": "CORP-SEC-SAM(CCM)",
      "paId": "_AJxSEIQxEeq0HYwxEl4Niw",
      "app": "ccm",
      "env": "production"
    },
    {
      "paName": "CORP-SEC-SERVICE(CCM)",
      "paId": "_PbAyQI_aEeiVDPTLFOmBEA",
      "app": "ccm",
      "env": "production"
    },
    {
      "paName": "Standard Template Parent(CCM)",
      "paId": "_6zzKQPLMEeijMPUyoa_Xkw",
      "app": "ccm",
      "env": "production"
    }
  ],
  "rtcTEAM": [
    {
      "teamName": "9527",
      "teamId": "_j0Z6gByfEeqeK5gNnZ9b5w"
    },
    {
      "teamName": "Team Area test aa",
      "teamId": "_WrlIUEydEeqRL_tXk9D-nQ"
    },
    {
      "teamName": "scp",
      "teamId": "_WdDgsBy9EeuBDehbwlekrw"
    },
    {
      "teamName": "scp2",
      "teamId": "_g9aroBy-EeuEHJ2pdB1ItQ"
    }
  ],
  "rtcROLE": {
    "VAL": "Validator",
    "VER": "Verifier",
    "project_admin": "PA Admin",
    "CMO": "Configuration Management Officer",
    "RD_leader": "RD Leader",
    "tester": "Test Engineer",
    "stakeholder": "Stakeholder",
    "QA": "Quality Assurance",
    "CSA": "Cybersecurity Assessor (CSA)",
    "release_engineer": "Release Engineer",
    "EPG_leader": "Engineering Process Group Leader",
    "developer": "Developer",
    "project_manager": "Project Manager",
    "EPG": "Engineering Process Group",
    "internal_customer": "Internal Customer"
  }
}